10
11  1  -1  2  -1  0  0  0  1  -2
2  -25  0  0  5  -1  3  -6  -2  3
0  1  5  0  0  0  0  1  0  0
-1  -1  2  -15  1  -2  0  1  -1  -1
3  -1  -1  0  21  -4  -1  1  0  0
-4  2  -1  0  0  17  -2  1  -3  1
0  0  0  0  0  1  -8  -1  0  4
0  1  6  -1  -1  0  2  19  -1  0
1  0  0  1  1  -3  -2  0  10  1
-1  -1  -1  1  1  -1  -1  1  1  -11

-9  -23  15  -10  -87  16  50  -13  -21  -124